[
  {
    "title": "Harvest VR",
    "imgUrl": "/img/portfolio/logo-harvest.jpg",
    "description": "A Farming game for the Oculus Quest",
    "categories": ["all", "games"],
    "link": "https://www.oculus.com/experiences/quest/3782210318498800/"
  },
  {
    "title": "Massonia",
    "imgUrl": "/img/portfolio/screenshot-massonia.jpg",
    "description": "Massonia is a website about growing and selling South African Bulbs, showing lots of beautiful plant images.",
    "categories": ["all", "websites"],
    "link": "https://www.massonia.nl"
  },
  {
    "title": "Star Wars: Galaxy",
    "imgUrl": "/img/portfolio/logo-starwarsgalaxy.jpeg",
    "description": "A Star Wars total conversion mod for Battle Talent (or as much as currently possible). This mod introduces a variety of lightsabers, spells and blasters from the Star Wars universe.",
    "categories": ["other"],
    "link": "https://battletalent.mod.io/star-wars-galaxy"
  },
  {
    "title": "Pulpmon",
    "imgUrl": "/img/portfolio/screenshot-pulpmon.png",
    "description": "A small turn-based rpg for the Playdate.",
    "categories": ["all", "games"]
  },
  {
    "title": "Questures",
    "imgUrl": "/img/portfolio/screenshot-questures.png",
    "description": "Not sure if an Oculus Quest game contains a feature? Check it here!",
    "categories": ["all", "websites"]
  },
  {
    "title": "RayMap VR",
    "imgUrl": "/img/portfolio/screenshot-raymapvr.png",
    "description": "A playable Quest port of RayMap. RayMap is an application that can load Rayman 2 maps.",
    "categories": ["all", "games"]
  },
  {
    "title": "Bolland Entertainment Solutions",
    "imgUrl": "/img/portfolio/screenshot-bes.png",
    "description": "A simple one pager for Bolland Entertainment Solutions.",
    "categories": ["all", "websites"]
  },
  {
    "title": "Waar Ga Ik Uit",
    "imgUrl": "/img/portfolio/screenshot-waargaikuit.png",
    "description": "Looking for a place to go out? Checkout this website!",
    "categories": ["all", "websites"]
  },
  {
    "title": "Flan",
    "imgUrl": "/img/portfolio/screenshot-flan.png",
    "description": "Can't seem the right game for your LAN party? This website has a list just for that!",
    "categories": ["all", "websites"]
  },
  {
    "title": "Snaptastic",
    "imgUrl": "/img/portfolio/screenshot-snaptastic.png",
    "description": "Install, update, remove, and view information about your installed snaps.",
    "categories": ["all", "apps"],
    "backgroundSize": "contain",
    "link": "https://appcenter.elementary.io/com.github.bartzaalberg.snaptastic/",
    "reviews": [
      {
        "link": "https://snapcraft.io/blog/snaptastic-elementary-os-snap-manager",
        "name":"Reviewed on Snapcraft"
      },
      {
        "link": "https://www.omgubuntu.co.uk/2019/06/install-snap-apps-on-elementary-os",
        "name":"Reviewed on omg!ubuntu!"
      },
      {
        "link": "https://linuxhint.com/best_apps_elementary_os",
        "name":"Rated 2th best on Linuxhint"
      },
      {
        "link": "https://www.fossmint.com/best-elementary-os-applications/",
        "name":"Listed on Fossmint"
      }
    ]
  },
  {
    "title": "Battle Talent Mods",
    "imgUrl": "/img/portfolio/screenshot-bt-mods.png",
    "description": "All the mods I've created for the Battle Talent.",
    "categories": ["all", "other"]
  },
  {
    "title": "Lottery",
    "imgUrl": "/img/portfolio/screenshot-lottery.png",
    "description": "A tool to determine who will be the winner.",
    "categories": ["all", "apps"],
    "backgroundSize": "contain"
  },
  {
    "title": "Bookmark Manager",
    "imgUrl": "/img/portfolio/screenshot-bookmark-manager.png",
    "description": "A simple tool to manage your SSH bookmarks from the .ssh/config file.",
    "categories": ["all", "apps"],
    "backgroundSize": "contain"
  },
  {
    "title": "LOA Characters",
    "imgUrl": "/img/portfolio/screenshot-loa-characters.png",
    "description": "An online player deck for the board game Legends of Andor.",
    "categories": ["all", "websites"]
  },
  {
    "title": "PHP Tester",
    "imgUrl": "/img/portfolio/screenshot-phptester.png",
    "description": "A simple code writer in PHP. Run small snippets of PHP.",
    "categories": ["all", "apps"],
    "backgroundSize": "contain"
  },
  {
    "title": "Vala Tester",
    "imgUrl": "/img/portfolio/screenshot-pythontester.png",
    "description": "A simple code writer in Python. Run small snippets of Python.",
    "categories": ["all", "apps"],
    "backgroundSize": "contain"
  },
  {
    "title": "xLua Battletalent Docs",
    "imgUrl": "/img/portfolio/screenshot-bt-docs.png",
    "description": "Documentation on how to make mods for Battle Talent.",
    "categories": ["all", "websites"]
  },
  {
    "title": "Sudokular",
    "imgUrl": "/img/portfolio/screenshot-sudokular.png",
    "description": "Sudoku for Elementary OS.",
    "categories": ["all", "games"],
    "backgroundSize": "contain"
  },
  {
    "title": "Mr. Winter",
    "imgUrl": "/img/portfolio/screenshot-snomes-mrwinter.png",
    "description": "A campaign written for the tabletop Snomes.",
    "categories": ["all", "other"]
  },
  {
    "title": "Textventure",
    "imgUrl": "/img/portfolio/screenshot-textventure.png",
    "description": "A text-based adventure game for Elementary OS.",
    "categories": ["all", "games"],
    "backgroundSize": "contain"
  },
  {
    "title": "Alias",
    "imgUrl": "/img/portfolio/screenshot-alias.png",
    "description": "Manage your Elementary OS aliases from a friendly UI.",
    "categories": ["all", "apps"],
    "backgroundSize": "contain"
  },
  {
    "title": "Repositories Manager",
    "imgUrl": "/img/portfolio/screenshot-repositories-manager.png",
    "description": "Manage your Elementary OS respositories from a friendly UI.",
    "categories": ["all", "apps"],
    "backgroundSize": "contain"
  },
  {
    "title": "Recipes",
    "imgUrl": "/img/portfolio/screenshot-recipes.png",
    "description": "A recipes app for Elementary OS. Easily add your own recipes in markdown.",
    "categories": ["all", "apps"],
    "backgroundSize": "contain"
  },
  {
    "title": "Milestone",
    "imgUrl": "/img/portfolio/screenshot-milestone.jpg",
    "description": "Looking for a place to go out? Checkout this website!",
    "categories": ["all", "websites"]
  }
]
